{
  "version": 2023032916,
  "feature": {
    "adp": {
      "adp_version": 20230321,
      "temp_lv1": 38000,
      "temp_lv2": 41000,
      "cluster_info": 62,
      "cluster_count": 2,
      "adp_server_switch": true,
      "xpu_adjust_switch": false,
      "cpu_level": [
      ],
      "gpu_level": [
      ],
      "xpu_blacklist": [
        "com.xxx.tmgp.sgame",
        "com.xxx.tmgp.pubgmhd"
      ],
      "adp_blacklist": [
        "com.xxx.tmgp.pubgmhd"
      ]
    },
    "preload_config": {
        "pkg_time_config": [
            { "pkg":"com.tencent.tmgp.sgame", "timeconfig":[15100,16500,20000] },
            { "pkg":"com.happyelements.AndroidAnimal", "timeconfig":[5500,7600,9000] },
            { "pkg":"com.tencent.tmgp.pubgmhd", "timeconfig":[9700,12300,14000] },
            { "pkg":"com.tencent.jkchess", "timeconfig":[15800,23900,25000] },
            { "pkg":"com.qqgame.hlddz", "timeconfig":[5000,7100,8500] },
            { "pkg":"cn.jj", "timeconfig":[5500,6900,8000] },
            { "pkg":"com.miHoYo.Yuanshen", "timeconfig":[16300,19000,22000] },
            { "pkg":"com.minitech.miniworld.nearme.gamecenter", "timeconfig":[10500,12700,15000] },
            { "pkg":"com.netease.sky.nearme.gamecenter", "timeconfig":[7900,8600,10000] },
            { "pkg":"com.ztgame.bob", "timeconfig":[6000,7800,9000] },
            { "pkg":"com.tencent.lolm", "timeconfig":[20200,26600,28000] },
            { "pkg":"com.tencent.tmgp.cf", "timeconfig":[29500,38600,35000] },
            { "pkg":"com.netease.mc.nearme.gamecenter", "timeconfig":[6000,8800,10000] },
            { "pkg":"com.tencent.KiHan", "timeconfig":[35500,42800,40000] },
            { "pkg":"com.supercell.clashofclans.nearme.gamecenter", "timeconfig":[3000,4500,5000] },
            { "pkg":"com.tencent.tmgp.speedmobile", "timeconfig":[9600,12100,14000] }
        ]
    }
  }
}
